…
    ## Warning: 2 parsing failures.
    ##  row col expected actual
    ## 1507  -- a number       
    ## 1644  -- a number

``` r
D
```

    ## # A tibble: 1,644 × 3
    ##     Year  Month  Temp
    ##    <int> <fctr> <dbl>
    ## 1   1880    Jan -0.30
    ## 2   1880    Feb -0.21
    ## 3   1880    Mar -0.18
    ## 4   1880    Apr -0.27
    ## 5   1880    May -0.14
    ## 6   1880    Jun -0.28
    ## 7   1880    Jul -0.23
    ## 8   1880    Aug -0.07
    ## 9   1880    Sep -0.17
    ## 10  1880    Oct -0.16
    ## # ... with 1,634 more rows
…
